{
    "/js/app.js": "/js/app.js",
    "/css/app.css": "/css/app.css",
    "/js/forms/login.js": "/js/forms/login.js",
    "/js/forms/register.js": "/js/forms/register.js",
    "/js/library.js": "/js/library.js"
}
